…
<!------------------------- Start your work below ----------------------------->

##### Question 1. Does the **mean compactness** of nuclei present in a sample image differ between *malignant diagnosis* samples and *benign diagnosis* samples?

**Q1.Summarizing:** Compute the *range*, *mean*, and *two other summary
statistics* of **one numerical variable** across the groups of **one
categorical variable** from your data.
<!----------------------------------------------------------------------------->

``` r
#load and define the dataset; also I added the standard error to the corresponding mean for further analysis plus add the complete name of diagnosis rather the abbreviation
cancer_sample
```

    ## # A tibble: 569 × 32
    ##          ID diagnosis radius_mean texture_mean perimeter_mean area_mean
    ##       <dbl> <chr>           <dbl>        <dbl>          <dbl>     <dbl>
    ##  1   842302 M                18.0         10.4          123.      1001 
    ##  2   842517 M                20.6         17.8          133.      1326 
    ##  3 84300903 M                19.7         21.2          130       1203 
    ##  4 84348301 M                11.4         20.4           77.6      386.
    ##  5 84358402 M                20.3         14.3          135.      1297 
    ##  6   843786 M                12.4         15.7           82.6      477.
    ##  7   844359 M                18.2         20.0          120.      1040 
    ##  8 84458202 M                13.7         20.8           90.2      578.
    ##  9   844981 M                13           21.8           87.5      520.
    ## 10 84501001 M                12.5         24.0           84.0      476.
    ## # ℹ 559 more rows
    ## # ℹ 26 more variables: smoothness_mean <dbl>, compactness_mean <dbl>,
    ## #   concavity_mean <dbl>, concave_points_mean <dbl>, symmetry_mean <dbl>,
    ## #   fractal_dimension_mean <dbl>, radius_se <dbl>, texture_se <dbl>,
    ## #   perimeter_se <dbl>, area_se <dbl>, smoothness_se <dbl>,
    ## #   compactness_se <dbl>, concavity_se <dbl>, concave_points_se <dbl>,
    ## #   symmetry_se <dbl>, fractal_dimension_se <dbl>, radius_worst <dbl>, …
…
    radius_mean_se = radius_mean + radius_se,
    texture_mean_se = texture_mean + texture_se,
    perimeter_mean_se = perimeter_mean + perimeter_se,
    area_mean_se = area_mean + area_se,
    smoothness_mean_se = smoothness_mean + smoothness_se,
    compactness_mean_se = compactness_mean + compactness_se,
    concavity_mean_se = concavity_mean + concavity_se,
    concave_point_mean_se = concave_points_mean + concave_points_se,
    symmetry_mean_se = symmetry_mean + symmetry_se,
    fractal_dimension_mean_se = fractal_dimension_mean + fractal_dimension_se) %>%
  mutate(diagnosis = ifelse(diagnosis == "B", "Benign", ifelse(diagnosis == "M", "Malignant", diagnosis)))
print(dataset)
```

    ## # A tibble: 569 × 42
    ##          ID diagnosis radius_mean texture_mean perimeter_mean area_mean
    ##       <dbl> <chr>           <dbl>        <dbl>          <dbl>     <dbl>
    ##  1   842302 Malignant        18.0         10.4          123.      1001 
    ##  2   842517 Malignant        20.6         17.8          133.      1326 
    ##  3 84300903 Malignant        19.7         21.2          130       1203 
    ##  4 84348301 Malignant        11.4         20.4           77.6      386.
    ##  5 84358402 Malignant        20.3         14.3          135.      1297 
    ##  6   843786 Malignant        12.4         15.7           82.6      477.
    ##  7   844359 Malignant        18.2         20.0          120.      1040 
    ##  8 84458202 Malignant        13.7         20.8           90.2      578.
    ##  9   844981 Malignant        13           21.8           87.5      520.
    ## 10 84501001 Malignant        12.5         24.0           84.0      476.
    ## # ℹ 559 more rows
    ## # ℹ 36 more variables: smoothness_mean <dbl>, compactness_mean <dbl>,
    ## #   concavity_mean <dbl>, concave_points_mean <dbl>, symmetry_mean <dbl>,
    ## #   fractal_dimension_mean <dbl>, radius_se <dbl>, texture_se <dbl>,
    ## #   perimeter_se <dbl>, area_se <dbl>, smoothness_se <dbl>,
    ## #   compactness_se <dbl>, concavity_se <dbl>, concave_points_se <dbl>,
    ## #   symmetry_se <dbl>, fractal_dimension_se <dbl>, radius_worst <dbl>, …

``` r
# Selected only malignant diagnosis as a categorical variable and compute range,mean, standard deviation, and median: helpful to show us compactness in malignant samples since the question is about the difference of compactness_mean_se between malignant and benign.
Malignant <- dataset %>%
  filter(diagnosis == "Malignant")
print(Malignant)
```

    ## # A tibble: 212 × 42
    ##          ID diagnosis radius_mean texture_mean perimeter_mean area_mean
    ##       <dbl> <chr>           <dbl>        <dbl>          <dbl>     <dbl>
    ##  1   842302 Malignant        18.0         10.4          123.      1001 
    ##  2   842517 Malignant        20.6         17.8          133.      1326 
    ##  3 84300903 Malignant        19.7         21.2          130       1203 
    ##  4 84348301 Malignant        11.4         20.4           77.6      386.
    ##  5 84358402 Malignant        20.3         14.3          135.      1297 
    ##  6   843786 Malignant        12.4         15.7           82.6      477.
    ##  7   844359 Malignant        18.2         20.0          120.      1040 
    ##  8 84458202 Malignant        13.7         20.8           90.2      578.
    ##  9   844981 Malignant        13           21.8           87.5      520.
    ## 10 84501001 Malignant        12.5         24.0           84.0      476.
    ## # ℹ 202 more rows
    ## # ℹ 36 more variables: smoothness_mean <dbl>, compactness_mean <dbl>,
    ## #   concavity_mean <dbl>, concave_points_mean <dbl>, symmetry_mean <dbl>,
    ## #   fractal_dimension_mean <dbl>, radius_se <dbl>, texture_se <dbl>,
    ## #   perimeter_se <dbl>, area_se <dbl>, smoothness_se <dbl>,
    ## #   compactness_se <dbl>, concavity_se <dbl>, concave_points_se <dbl>,
    ## #   symmetry_se <dbl>, fractal_dimension_se <dbl>, radius_worst <dbl>, …
…
    ## [1] 0.166155

**Q1. Graphing:** Make a graph where it makes sense to customize the
alpha transparency.

``` r
#Loadding the package
library(ggplot2)

dataset
```

    ## # A tibble: 569 × 42
    ##          ID diagnosis radius_mean texture_mean perimeter_mean area_mean
    ##       <dbl> <chr>           <dbl>        <dbl>          <dbl>     <dbl>
    ##  1   842302 Malignant        18.0         10.4          123.      1001 
    ##  2   842517 Malignant        20.6         17.8          133.      1326 
    ##  3 84300903 Malignant        19.7         21.2          130       1203 
    ##  4 84348301 Malignant        11.4         20.4           77.6      386.
    ##  5 84358402 Malignant        20.3         14.3          135.      1297 
    ##  6   843786 Malignant        12.4         15.7           82.6      477.
    ##  7   844359 Malignant        18.2         20.0          120.      1040 
    ##  8 84458202 Malignant        13.7         20.8           90.2      578.
    ##  9   844981 Malignant        13           21.8           87.5      520.
    ## 10 84501001 Malignant        12.5         24.0           84.0      476.
    ## # ℹ 559 more rows
    ## # ℹ 36 more variables: smoothness_mean <dbl>, compactness_mean <dbl>,
    ## #   concavity_mean <dbl>, concave_points_mean <dbl>, symmetry_mean <dbl>,
    ## #   fractal_dimension_mean <dbl>, radius_se <dbl>, texture_se <dbl>,
    ## #   perimeter_se <dbl>, area_se <dbl>, smoothness_se <dbl>,
    ## #   compactness_se <dbl>, concavity_se <dbl>, concave_points_se <dbl>,
    ## #   symmetry_se <dbl>, fractal_dimension_se <dbl>, radius_worst <dbl>, …
…
##### Question 2. Is there a difference in the **mean perimeter** of nuclei present in a sample image between *malignant* diagnosis samples and *benign* diagnosis samples?

**Q2.Summarizing:** Compute the *range*, *mean*, and *two other summary
statistics* of **one numerical variable** across the groups of **one
categorical variable** from your data.

``` r
# Selected only Benign diagnosis as a categorical variable and compute range,mean, standard deviation, and median of perimeter_mean_se: gives me better idea to compare this variable between malignant and benign specimens.
Benign <- dataset %>%
  filter(diagnosis == "Benign")
print(Benign)
```

    ## # A tibble: 357 × 42
    ##          ID diagnosis radius_mean texture_mean perimeter_mean area_mean
    ##       <dbl> <chr>           <dbl>        <dbl>          <dbl>     <dbl>
    ##  1  8510426 Benign          13.5          14.4           87.5      566.
    ##  2  8510653 Benign          13.1          15.7           85.6      520 
    ##  3  8510824 Benign           9.50         12.4           60.3      274.
    ##  4   854941 Benign          13.0          18.4           82.6      524.
    ##  5 85713702 Benign           8.20         16.8           51.7      202.
    ##  6   857155 Benign          12.0          14.6           78.0      449.
    ##  7   857156 Benign          13.5          22.3           86.9      561 
    ##  8   857343 Benign          11.8          21.6           74.7      428.
    ##  9   857373 Benign          13.6          16.3           87.2      572.
    ## 10   857374 Benign          11.9          18.2           75.7      438.
    ## # ℹ 347 more rows
    ## # ℹ 36 more variables: smoothness_mean <dbl>, compactness_mean <dbl>,
    ## #   concavity_mean <dbl>, concave_points_mean <dbl>, symmetry_mean <dbl>,
    ## #   fractal_dimension_mean <dbl>, radius_se <dbl>, texture_se <dbl>,
    ## #   perimeter_se <dbl>, area_se <dbl>, smoothness_se <dbl>,
    ## #   compactness_se <dbl>, concavity_se <dbl>, concave_points_se <dbl>,
    ## #   symmetry_se <dbl>, fractal_dimension_se <dbl>, radius_worst <dbl>, …
…
    ## [1] 80.184

**Q2. Graphing:** Make a graph where it makes sense to customize the
alpha transparency.

``` r
#Loadding the package
library(ggplot2)
dataset
```

    ## # A tibble: 569 × 42
    ##          ID diagnosis radius_mean texture_mean perimeter_mean area_mean
    ##       <dbl> <chr>           <dbl>        <dbl>          <dbl>     <dbl>
    ##  1   842302 Malignant        18.0         10.4          123.      1001 
    ##  2   842517 Malignant        20.6         17.8          133.      1326 
    ##  3 84300903 Malignant        19.7         21.2          130       1203 
    ##  4 84348301 Malignant        11.4         20.4           77.6      386.
    ##  5 84358402 Malignant        20.3         14.3          135.      1297 
    ##  6   843786 Malignant        12.4         15.7           82.6      477.
    ##  7   844359 Malignant        18.2         20.0          120.      1040 
    ##  8 84458202 Malignant        13.7         20.8           90.2      578.
    ##  9   844981 Malignant        13           21.8           87.5      520.
    ## 10 84501001 Malignant        12.5         24.0           84.0      476.
    ## # ℹ 559 more rows
    ## # ℹ 36 more variables: smoothness_mean <dbl>, compactness_mean <dbl>,
    ## #   concavity_mean <dbl>, concave_points_mean <dbl>, symmetry_mean <dbl>,
    ## #   fractal_dimension_mean <dbl>, radius_se <dbl>, texture_se <dbl>,
    ## #   perimeter_se <dbl>, area_se <dbl>, smoothness_se <dbl>,
    ## #   compactness_se <dbl>, concavity_se <dbl>, concave_points_se <dbl>,
    ## #   symmetry_se <dbl>, fractal_dimension_se <dbl>, radius_worst <dbl>, …
…
##### Question 3. Do *malignant samples* have the **largest perimeter** of nuclei present in the sample image compared to the *benign* samples?

**Q3.Summarizing:** Compute the *range*, *mean*, and *two other summary
statistics* of **one numerical variable** across the groups of **one
categorical variable** from your data.

``` r
#Producing a new dataset only contain perimeter data called perimeter_dataset from malignant dataset: only have the variable for malignant patients.
perimeter_Malignant <- Malignant %>%  
  select(diagnosis, perimeter_mean, perimeter_se, perimeter_mean_se, perimeter_worst)
print(perimeter_Malignant)
```

    ## # A tibble: 212 × 5
    ##    diagnosis perimeter_mean perimeter_se perimeter_mean_se perimeter_worst
    ##    <chr>              <dbl>        <dbl>             <dbl>           <dbl>
    ##  1 Malignant          123.          8.59             131.            185. 
    ##  2 Malignant          133.          3.40             136.            159. 
    ##  3 Malignant          130           4.58             135.            152. 
    ##  4 Malignant           77.6         3.44              81.0            98.9
    ##  5 Malignant          135.          5.44             141.            152. 
    ##  6 Malignant           82.6         2.22              84.8           103. 
    ##  7 Malignant          120.          3.18             123.            153. 
    ##  8 Malignant           90.2         3.86              94.1           111. 
    ##  9 Malignant           87.5         2.41              89.9           106. 
    ## 10 Malignant           84.0         2.04              86.0            97.6
    ## # ℹ 202 more rows
…
**Q3. Graphing:** Make a graph where it makes sense to customize the
alpha transparency.

``` r
#Loadding the package
library(ggplot2)

#Producing a new dataset only contain perimeter data called perimeter_dataset for both patients: malignant and benign
perimeter_dataset <- dataset %>%  
  select(diagnosis, perimeter_mean, perimeter_se, perimeter_mean_se, perimeter_worst)
print(perimeter_dataset)
```

    ## # A tibble: 569 × 5
    ##    diagnosis perimeter_mean perimeter_se perimeter_mean_se perimeter_worst
    ##    <chr>              <dbl>        <dbl>             <dbl>           <dbl>
    ##  1 Malignant          123.          8.59             131.            185. 
    ##  2 Malignant          133.          3.40             136.            159. 
    ##  3 Malignant          130           4.58             135.            152. 
    ##  4 Malignant           77.6         3.44              81.0            98.9
    ##  5 Malignant          135.          5.44             141.            152. 
    ##  6 Malignant           82.6         2.22              84.8           103. 
    ##  7 Malignant          120.          3.18             123.            153. 
    ##  8 Malignant           90.2         3.86              94.1           111. 
    ##  9 Malignant           87.5         2.41              89.9           106. 
    ## 10 Malignant           84.0         2.04              86.0            97.6
    ## # ℹ 559 more rows
…
##### Question 4. In *malignant* samples, is there any association between the **largest compactness** of nuclei and the **largest smoothness** of nuclei?

**Q4.Summarizing:** Create a categorical variable with 3 or more groups
from an existing numerical variable. You can use this new variable in
the other tasks! An example: age in years into “child, teen, adult,
senior”.

``` r
Malignant
```

    ## # A tibble: 212 × 42
    ##          ID diagnosis radius_mean texture_mean perimeter_mean area_mean
    ##       <dbl> <chr>           <dbl>        <dbl>          <dbl>     <dbl>
    ##  1   842302 Malignant        18.0         10.4          123.      1001 
    ##  2   842517 Malignant        20.6         17.8          133.      1326 
    ##  3 84300903 Malignant        19.7         21.2          130       1203 
    ##  4 84348301 Malignant        11.4         20.4           77.6      386.
    ##  5 84358402 Malignant        20.3         14.3          135.      1297 
    ##  6   843786 Malignant        12.4         15.7           82.6      477.
    ##  7   844359 Malignant        18.2         20.0          120.      1040 
    ##  8 84458202 Malignant        13.7         20.8           90.2      578.
    ##  9   844981 Malignant        13           21.8           87.5      520.
    ## 10 84501001 Malignant        12.5         24.0           84.0      476.
    ## # ℹ 202 more rows
    ## # ℹ 36 more variables: smoothness_mean <dbl>, compactness_mean <dbl>,
    ## #   concavity_mean <dbl>, concave_points_mean <dbl>, symmetry_mean <dbl>,
    ## #   fractal_dimension_mean <dbl>, radius_se <dbl>, texture_se <dbl>,
    ## #   perimeter_se <dbl>, area_se <dbl>, smoothness_se <dbl>,
    ## #   compactness_se <dbl>, concavity_se <dbl>, concave_points_se <dbl>,
    ## #   symmetry_se <dbl>, fractal_dimension_se <dbl>, radius_worst <dbl>, …
…
    radius_worst,
    texture_worst,
    perimeter_worst,
    area_worst,
    smoothness_worst,
    compactness_worst,
    concavity_worst,
    concave_points_worst,
    symmetry_worst,
    fractal_dimension_worst) %>%
  filter(diagnosis == "Malignant")
print(Malignant_worst_data)
```

    ## # A tibble: 212 × 12
    ##          ID diagnosis radius_worst texture_worst perimeter_worst area_worst
    ##       <dbl> <chr>            <dbl>         <dbl>           <dbl>      <dbl>
    ##  1   842302 Malignant         25.4          17.3           185.       2019 
    ##  2   842517 Malignant         25.0          23.4           159.       1956 
    ##  3 84300903 Malignant         23.6          25.5           152.       1709 
    ##  4 84348301 Malignant         14.9          26.5            98.9       568.
    ##  5 84358402 Malignant         22.5          16.7           152.       1575 
    ##  6   843786 Malignant         15.5          23.8           103.        742.
    ##  7   844359 Malignant         22.9          27.7           153.       1606 
    ##  8 84458202 Malignant         17.1          28.1           111.        897 
    ##  9   844981 Malignant         15.5          30.7           106.        739.
    ## 10 84501001 Malignant         15.1          40.7            97.6       711.
    ## # ℹ 202 more rows
    ## # ℹ 6 more variables: smoothness_worst <dbl>, compactness_worst <dbl>,
    ## #   concavity_worst <dbl>, concave_points_worst <dbl>, symmetry_worst <dbl>,
    ## #   fractal_dimension_worst <dbl>
…
